<define-tag pagetitle>DSA-4658-1 webkit2gtk</define-tag>
<define-tag report_date>2020-4-16</define-tag>
<define-tag secrefs>CVE-2020-11793</define-tag>
<define-tag packages>webkit2gtk</define-tag>
<define-tag isvulnerable>yes</define-tag>
<define-tag fixed>yes</define-tag>
<define-tag fixed-section>no</define-tag>

#use wml::debian::security



</dl>
