<define-tag pagetitle>DLA-1118-1 firefox-esr</define-tag>
<define-tag report_date>2017-9-30</define-tag>
<define-tag secrefs>CVE-2017-7793 CVE-2017-7805 CVE-2017-7810 CVE-2017-7814 CVE-2017-7818 CVE-2017-7819 CVE-2017-7823 CVE-2017-7824</define-tag>
<define-tag packages>firefox-esr</define-tag>
<define-tag isvulnerable>yes</define-tag>
<define-tag fixed>yes</define-tag>
<define-tag fixed-section>no</define-tag>

#use wml::debian::security

