<define-tag pagetitle>DLA-1383-1 xen</define-tag>
<define-tag report_date>2018-5-25</define-tag>
<define-tag secrefs>CVE-2018-8897 CVE-2018-10981 CVE-2018-10982</define-tag>
<define-tag packages>xen</define-tag>
<define-tag isvulnerable>yes</define-tag>
<define-tag fixed>yes</define-tag>
<define-tag fixed-section>no</define-tag>

#use wml::debian::security

