<define-tag pagetitle>DLA-1393-1 </define-tag>
<define-tag report_date>2018-6-1</define-tag>
<define-tag packages></define-tag>
<define-tag isvulnerable>yes</define-tag>
<define-tag fixed>yes</define-tag>
<define-tag fixed-section>no</define-tag>

#use wml::debian::security

