<define-tag pagetitle>DLA-1786-1 qt4-x11</define-tag>
<define-tag report_date>2019-05-14</define-tag>
<define-tag secrefs>CVE-2018-15518 CVE-2018-19869 CVE-2018-19870 CVE-2018-19871 CVE-2018-19873 Bug##923003</define-tag>
<define-tag packages>qt4-x11</define-tag>
<define-tag isvulnerable>yes</define-tag>
<define-tag fixed>yes</define-tag>
<define-tag fixed-section>no</define-tag>

#use wml::debian::security

